{
  "version": "tree-0.1",
  "tree": {
    "id": "App",
    "path": "",
    "children": {
      "Tree": {
        "id": "Tree",
        "path": "Tree",
        "constructInfo": {
          "fqn": "constructs.Construct",
          "version": "10.0.47"
        }
      },
      "vpc-stack": {
        "id": "vpc-stack",
        "path": "vpc-stack",
        "children": {
          "my-cdk-vpc": {
            "id": "my-cdk-vpc",
            "path": "vpc-stack/my-cdk-vpc",
            "children": {
              "Resource": {
                "id": "Resource",
                "path": "vpc-stack/my-cdk-vpc/Resource",
                "attributes": {
                  "aws:cdk:cloudformation:type": "AWS::EC2::VPC",
                  "aws:cdk:cloudformation:props": {
                    "cidrBlock": "10.20.0.0/16",
                    "enableDnsHostnames": true,
                    "enableDnsSupport": true,
                    "instanceTenancy": "default",
                    "tags": [
                      {
                        "key": "Name",
                        "value": "my-cdk-vpc"
                      }
                    ]
                  }
                },
                "constructInfo": {
                  "fqn": "aws-cdk-lib.aws_ec2.CfnVPC",
                  "version": "2.9.0"
                }
              },
              "Application-subnetSubnet1": {
                "id": "Application-subnetSubnet1",
                "path": "vpc-stack/my-cdk-vpc/Application-subnetSubnet1",
                "children": {
                  "Subnet": {
                    "id": "Subnet",
                    "path": "vpc-stack/my-cdk-vpc/Application-subnetSubnet1/Subnet",
                    "attributes": {
                      "aws:cdk:cloudformation:type": "AWS::EC2::Subnet",
                      "aws:cdk:cloudformation:props": {
                        "cidrBlock": "10.20.0.0/24",
                        "vpcId": {
                          "Ref": "mycdkvpc037DA4AF"
                        },
                        "availabilityZone": {
                          "Fn::Select": [
                            0,
                            {
                              "Fn::GetAZs": ""
                            }
                          ]
                        },
                        "mapPublicIpOnLaunch": false,
                        "tags": [
                          {
                            "key": "aws-cdk:subnet-name",
                            "value": "Application-subnet"
                          },
                          {
                            "key": "aws-cdk:subnet-type",
                            "value": "Private"
                          },
                          {
                            "key": "Name",
                            "value": "vpc-stack/my-cdk-vpc/Application-subnetSubnet1"
                          }
                        ]
                      }
                    },
                    "constructInfo": {
                      "fqn": "aws-cdk-lib.aws_ec2.CfnSubnet",
                      "version": "2.9.0"
                    }
                  },
                  "Acl": {
                    "id": "Acl",
                    "path": "vpc-stack/my-cdk-vpc/Application-subnetSubnet1/Acl",
                    "constructInfo": {
                      "fqn": "aws-cdk-lib.Resource",
                      "version": "2.9.0"
                    }
                  },
                  "RouteTable": {
                    "id": "RouteTable",
                    "path": "vpc-stack/my-cdk-vpc/Application-subnetSubnet1/RouteTable",
                    "attributes": {
                      "aws:cdk:cloudformation:type": "AWS::EC2::RouteTable",
                      "aws:cdk:cloudformation:props": {
                        "vpcId": {
                          "Ref": "mycdkvpc037DA4AF"
                        },
                        "tags": [
                          {
                            "key": "Name",
                            "value": "vpc-stack/my-cdk-vpc/Application-subnetSubnet1"
                          }
                        ]
                      }
                    },
                    "constructInfo": {
                      "fqn": "aws-cdk-lib.aws_ec2.CfnRouteTable",
                      "version": "2.9.0"
                    }
                  },
                  "RouteTableAssociation": {
                    "id": "RouteTableAssociation",
                    "path": "vpc-stack/my-cdk-vpc/Application-subnetSubnet1/RouteTableAssociation",
                    "attributes": {
                      "aws:cdk:cloudformation:type": "AWS::EC2::SubnetRouteTableAssociation",
                      "aws:cdk:cloudformation:props": {
                        "routeTableId": {
                          "Ref": "mycdkvpcApplicationsubnetSubnet1RouteTable5D8E4441"
                        },
                        "subnetId": {
                          "Ref": "mycdkvpcApplicationsubnetSubnet1Subnet21C2B701"
                        }
                      }
                    },
                    "constructInfo": {
                      "fqn": "aws-cdk-lib.aws_ec2.CfnSubnetRouteTableAssociation",
                      "version": "2.9.0"
                    }
                  },
                  "DefaultRoute": {
                    "id": "DefaultRoute",
                    "path": "vpc-stack/my-cdk-vpc/Application-subnetSubnet1/DefaultRoute",
                    "attributes": {
                      "aws:cdk:cloudformation:type": "AWS::EC2::Route",
                      "aws:cdk:cloudformation:props": {
                        "routeTableId": {
                          "Ref": "mycdkvpcApplicationsubnetSubnet1RouteTable5D8E4441"
                        },
                        "destinationCidrBlock": "0.0.0.0/0",
                        "natGatewayId": {
                          "Ref": "mycdkvpcpublicsubnet1Subnet1NATGatewayA2DD765A"
                        }
                      }
                    },
                    "constructInfo": {
                      "fqn": "aws-cdk-lib.aws_ec2.CfnRoute",
                      "version": "2.9.0"
                    }
                  }
                },
                "constructInfo": {
                  "fqn": "aws-cdk-lib.aws_ec2.PrivateSubnet",
                  "version": "2.9.0"
                }
              },
              "Application-subnetSubnet2": {
                "id": "Application-subnetSubnet2",
                "path": "vpc-stack/my-cdk-vpc/Application-subnetSubnet2",
                "children": {
                  "Subnet": {
                    "id": "Subnet",
                    "path": "vpc-stack/my-cdk-vpc/Application-subnetSubnet2/Subnet",
                    "attributes": {
                      "aws:cdk:cloudformation:type": "AWS::EC2::Subnet",
                      "aws:cdk:cloudformation:props": {
                        "cidrBlock": "10.20.1.0/24",
                        "vpcId": {
                          "Ref": "mycdkvpc037DA4AF"
                        },
                        "availabilityZone": {
                          "Fn::Select": [
                            1,
                            {
                              "Fn::GetAZs": ""
                            }
                          ]
                        },
                        "mapPublicIpOnLaunch": false,
                        "tags": [
                          {
                            "key": "aws-cdk:subnet-name",
                            "value": "Application-subnet"
                          },
                          {
                            "key": "aws-cdk:subnet-type",
                            "value": "Private"
                          },
                          {
                            "key": "Name",
                            "value": "vpc-stack/my-cdk-vpc/Application-subnetSubnet2"
                          }
                        ]
                      }
                    },
                    "constructInfo": {
                      "fqn": "aws-cdk-lib.aws_ec2.CfnSubnet",
                      "version": "2.9.0"
                    }
                  },
                  "Acl": {
                    "id": "Acl",
                    "path": "vpc-stack/my-cdk-vpc/Application-subnetSubnet2/Acl",
                    "constructInfo": {
                      "fqn": "aws-cdk-lib.Resource",
                      "version": "2.9.0"
                    }
                  },
                  "RouteTable": {
                    "id": "RouteTable",
                    "path": "vpc-stack/my-cdk-vpc/Application-subnetSubnet2/RouteTable",
                    "attributes": {
                      "aws:cdk:cloudformation:type": "AWS::EC2::RouteTable",
                      "aws:cdk:cloudformation:props": {
                        "vpcId": {
                          "Ref": "mycdkvpc037DA4AF"
                        },
                        "tags": [
                          {
                            "key": "Name",
                            "value": "vpc-stack/my-cdk-vpc/Application-subnetSubnet2"
                          }
                        ]
                      }
                    },
                    "constructInfo": {
                      "fqn": "aws-cdk-lib.aws_ec2.CfnRouteTable",
                      "version": "2.9.0"
                    }
                  },
                  "RouteTableAssociation": {
                    "id": "RouteTableAssociation",
                    "path": "vpc-stack/my-cdk-vpc/Application-subnetSubnet2/RouteTableAssociation",
                    "attributes": {
                      "aws:cdk:cloudformation:type": "AWS::EC2::SubnetRouteTableAssociation",
                      "aws:cdk:cloudformation:props": {
                        "routeTableId": {
                          "Ref": "mycdkvpcApplicationsubnetSubnet2RouteTableDF8F2C44"
                        },
                        "subnetId": {
                          "Ref": "mycdkvpcApplicationsubnetSubnet2Subnet3257036D"
                        }
                      }
                    },
                    "constructInfo": {
                      "fqn": "aws-cdk-lib.aws_ec2.CfnSubnetRouteTableAssociation",
                      "version": "2.9.0"
                    }
                  },
                  "DefaultRoute": {
                    "id": "DefaultRoute",
                    "path": "vpc-stack/my-cdk-vpc/Application-subnetSubnet2/DefaultRoute",
                    "attributes": {
                      "aws:cdk:cloudformation:type": "AWS::EC2::Route",
                      "aws:cdk:cloudformation:props": {
                        "routeTableId": {
                          "Ref": "mycdkvpcApplicationsubnetSubnet2RouteTableDF8F2C44"
                        },
                        "destinationCidrBlock": "0.0.0.0/0",
                        "natGatewayId": {
                          "Ref": "mycdkvpcpublicsubnet1Subnet1NATGatewayA2DD765A"
                        }
                      }
                    },
                    "constructInfo": {
                      "fqn": "aws-cdk-lib.aws_ec2.CfnRoute",
                      "version": "2.9.0"
                    }
                  }
                },
                "constructInfo": {
                  "fqn": "aws-cdk-lib.aws_ec2.PrivateSubnet",
                  "version": "2.9.0"
                }
              },
              "public-subnet-1Subnet1": {
                "id": "public-subnet-1Subnet1",
                "path": "vpc-stack/my-cdk-vpc/public-subnet-1Subnet1",
                "children": {
                  "Subnet": {
                    "id": "Subnet",
                    "path": "vpc-stack/my-cdk-vpc/public-subnet-1Subnet1/Subnet",
                    "attributes": {
                      "aws:cdk:cloudformation:type": "AWS::EC2::Subnet",
                      "aws:cdk:cloudformation:props": {
                        "cidrBlock": "10.20.2.0/24",
                        "vpcId": {
                          "Ref": "mycdkvpc037DA4AF"
                        },
                        "availabilityZone": {
                          "Fn::Select": [
                            0,
                            {
                              "Fn::GetAZs": ""
                            }
                          ]
                        },
                        "mapPublicIpOnLaunch": true,
                        "tags": [
                          {
                            "key": "aws-cdk:subnet-name",
                            "value": "public-subnet-1"
                          },
                          {
                            "key": "aws-cdk:subnet-type",
                            "value": "Public"
                          },
                          {
                            "key": "Name",
                            "value": "vpc-stack/my-cdk-vpc/public-subnet-1Subnet1"
                          }
                        ]
                      }
                    },
                    "constructInfo": {
                      "fqn": "aws-cdk-lib.aws_ec2.CfnSubnet",
                      "version": "2.9.0"
                    }
                  },
                  "Acl": {
                    "id": "Acl",
                    "path": "vpc-stack/my-cdk-vpc/public-subnet-1Subnet1/Acl",
                    "constructInfo": {
                      "fqn": "aws-cdk-lib.Resource",
                      "version": "2.9.0"
                    }
                  },
                  "RouteTable": {
                    "id": "RouteTable",
                    "path": "vpc-stack/my-cdk-vpc/public-subnet-1Subnet1/RouteTable",
                    "attributes": {
                      "aws:cdk:cloudformation:type": "AWS::EC2::RouteTable",
                      "aws:cdk:cloudformation:props": {
                        "vpcId": {
                          "Ref": "mycdkvpc037DA4AF"
                        },
                        "tags": [
                          {
                            "key": "Name",
                            "value": "vpc-stack/my-cdk-vpc/public-subnet-1Subnet1"
                          }
                        ]
                      }
                    },
                    "constructInfo": {
                      "fqn": "aws-cdk-lib.aws_ec2.CfnRouteTable",
                      "version": "2.9.0"
                    }
                  },
                  "RouteTableAssociation": {
                    "id": "RouteTableAssociation",
                    "path": "vpc-stack/my-cdk-vpc/public-subnet-1Subnet1/RouteTableAssociation",
                    "attributes": {
                      "aws:cdk:cloudformation:type": "AWS::EC2::SubnetRouteTableAssociation",
                      "aws:cdk:cloudformation:props": {
                        "routeTableId": {
                          "Ref": "mycdkvpcpublicsubnet1Subnet1RouteTableE1ABF705"
                        },
                        "subnetId": {
                          "Ref": "mycdkvpcpublicsubnet1Subnet1Subnet8383DBBA"
                        }
                      }
                    },
                    "constructInfo": {
                      "fqn": "aws-cdk-lib.aws_ec2.CfnSubnetRouteTableAssociation",
                      "version": "2.9.0"
                    }
                  },
                  "DefaultRoute": {
                    "id": "DefaultRoute",
                    "path": "vpc-stack/my-cdk-vpc/public-subnet-1Subnet1/DefaultRoute",
                    "attributes": {
                      "aws:cdk:cloudformation:type": "AWS::EC2::Route",
                      "aws:cdk:cloudformation:props": {
                        "routeTableId": {
                          "Ref": "mycdkvpcpublicsubnet1Subnet1RouteTableE1ABF705"
                        },
                        "destinationCidrBlock": "0.0.0.0/0",
                        "gatewayId": {
                          "Ref": "mycdkvpcIGW4220D5A9"
                        }
                      }
                    },
                    "constructInfo": {
                      "fqn": "aws-cdk-lib.aws_ec2.CfnRoute",
                      "version": "2.9.0"
                    }
                  },
                  "EIP": {
                    "id": "EIP",
                    "path": "vpc-stack/my-cdk-vpc/public-subnet-1Subnet1/EIP",
                    "attributes": {
                      "aws:cdk:cloudformation:type": "AWS::EC2::EIP",
                      "aws:cdk:cloudformation:props": {
                        "domain": "vpc",
                        "tags": [
                          {
                            "key": "Name",
                            "value": "vpc-stack/my-cdk-vpc/public-subnet-1Subnet1"
                          }
                        ]
                      }
                    },
                    "constructInfo": {
                      "fqn": "aws-cdk-lib.aws_ec2.CfnEIP",
                      "version": "2.9.0"
                    }
                  },
                  "NATGateway": {
                    "id": "NATGateway",
                    "path": "vpc-stack/my-cdk-vpc/public-subnet-1Subnet1/NATGateway",
                    "attributes": {
                      "aws:cdk:cloudformation:type": "AWS::EC2::NatGateway",
                      "aws:cdk:cloudformation:props": {
                        "subnetId": {
                          "Ref": "mycdkvpcpublicsubnet1Subnet1Subnet8383DBBA"
                        },
                        "allocationId": {
                          "Fn::GetAtt": [
                            "mycdkvpcpublicsubnet1Subnet1EIPA046231A",
                            "AllocationId"
                          ]
                        },
                        "tags": [
                          {
                            "key": "Name",
                            "value": "vpc-stack/my-cdk-vpc/public-subnet-1Subnet1"
                          }
                        ]
                      }
                    },
                    "constructInfo": {
                      "fqn": "aws-cdk-lib.aws_ec2.CfnNatGateway",
                      "version": "2.9.0"
                    }
                  }
                },
                "constructInfo": {
                  "fqn": "aws-cdk-lib.aws_ec2.PublicSubnet",
                  "version": "2.9.0"
                }
              },
              "public-subnet-1Subnet2": {
                "id": "public-subnet-1Subnet2",
                "path": "vpc-stack/my-cdk-vpc/public-subnet-1Subnet2",
                "children": {
                  "Subnet": {
                    "id": "Subnet",
                    "path": "vpc-stack/my-cdk-vpc/public-subnet-1Subnet2/Subnet",
                    "attributes": {
                      "aws:cdk:cloudformation:type": "AWS::EC2::Subnet",
                      "aws:cdk:cloudformation:props": {
                        "cidrBlock": "10.20.3.0/24",
                        "vpcId": {
                          "Ref": "mycdkvpc037DA4AF"
                        },
                        "availabilityZone": {
                          "Fn::Select": [
                            1,
                            {
                              "Fn::GetAZs": ""
                            }
                          ]
                        },
                        "mapPublicIpOnLaunch": true,
                        "tags": [
                          {
                            "key": "aws-cdk:subnet-name",
                            "value": "public-subnet-1"
                          },
                          {
                            "key": "aws-cdk:subnet-type",
                            "value": "Public"
                          },
                          {
                            "key": "Name",
                            "value": "vpc-stack/my-cdk-vpc/public-subnet-1Subnet2"
                          }
                        ]
                      }
                    },
                    "constructInfo": {
                      "fqn": "aws-cdk-lib.aws_ec2.CfnSubnet",
                      "version": "2.9.0"
                    }
                  },
                  "Acl": {
                    "id": "Acl",
                    "path": "vpc-stack/my-cdk-vpc/public-subnet-1Subnet2/Acl",
                    "constructInfo": {
                      "fqn": "aws-cdk-lib.Resource",
                      "version": "2.9.0"
                    }
                  },
                  "RouteTable": {
                    "id": "RouteTable",
                    "path": "vpc-stack/my-cdk-vpc/public-subnet-1Subnet2/RouteTable",
                    "attributes": {
                      "aws:cdk:cloudformation:type": "AWS::EC2::RouteTable",
                      "aws:cdk:cloudformation:props": {
                        "vpcId": {
                          "Ref": "mycdkvpc037DA4AF"
                        },
                        "tags": [
                          {
                            "key": "Name",
                            "value": "vpc-stack/my-cdk-vpc/public-subnet-1Subnet2"
                          }
                        ]
                      }
                    },
                    "constructInfo": {
                      "fqn": "aws-cdk-lib.aws_ec2.CfnRouteTable",
                      "version": "2.9.0"
                    }
                  },
                  "RouteTableAssociation": {
                    "id": "RouteTableAssociation",
                    "path": "vpc-stack/my-cdk-vpc/public-subnet-1Subnet2/RouteTableAssociation",
                    "attributes": {
                      "aws:cdk:cloudformation:type": "AWS::EC2::SubnetRouteTableAssociation",
                      "aws:cdk:cloudformation:props": {
                        "routeTableId": {
                          "Ref": "mycdkvpcpublicsubnet1Subnet2RouteTable3099F008"
                        },
                        "subnetId": {
                          "Ref": "mycdkvpcpublicsubnet1Subnet2SubnetE104EC20"
                        }
                      }
                    },
                    "constructInfo": {
                      "fqn": "aws-cdk-lib.aws_ec2.CfnSubnetRouteTableAssociation",
                      "version": "2.9.0"
                    }
                  },
                  "DefaultRoute": {
                    "id": "DefaultRoute",
                    "path": "vpc-stack/my-cdk-vpc/public-subnet-1Subnet2/DefaultRoute",
                    "attributes": {
                      "aws:cdk:cloudformation:type": "AWS::EC2::Route",
                      "aws:cdk:cloudformation:props": {
                        "routeTableId": {
                          "Ref": "mycdkvpcpublicsubnet1Subnet2RouteTable3099F008"
                        },
                        "destinationCidrBlock": "0.0.0.0/0",
                        "gatewayId": {
                          "Ref": "mycdkvpcIGW4220D5A9"
                        }
                      }
                    },
                    "constructInfo": {
                      "fqn": "aws-cdk-lib.aws_ec2.CfnRoute",
                      "version": "2.9.0"
                    }
                  }
                },
                "constructInfo": {
                  "fqn": "aws-cdk-lib.aws_ec2.PublicSubnet",
                  "version": "2.9.0"
                }
              },
              "DB-subnetSubnet1": {
                "id": "DB-subnetSubnet1",
                "path": "vpc-stack/my-cdk-vpc/DB-subnetSubnet1",
                "children": {
                  "Subnet": {
                    "id": "Subnet",
                    "path": "vpc-stack/my-cdk-vpc/DB-subnetSubnet1/Subnet",
                    "attributes": {
                      "aws:cdk:cloudformation:type": "AWS::EC2::Subnet",
                      "aws:cdk:cloudformation:props": {
                        "cidrBlock": "10.20.4.0/28",
                        "vpcId": {
                          "Ref": "mycdkvpc037DA4AF"
                        },
                        "availabilityZone": {
                          "Fn::Select": [
                            0,
                            {
                              "Fn::GetAZs": ""
                            }
                          ]
                        },
                        "mapPublicIpOnLaunch": false,
                        "tags": [
                          {
                            "key": "aws-cdk:subnet-name",
                            "value": "DB-subnet"
                          },
                          {
                            "key": "aws-cdk:subnet-type",
                            "value": "Isolated"
                          },
                          {
                            "key": "Name",
                            "value": "vpc-stack/my-cdk-vpc/DB-subnetSubnet1"
                          }
                        ]
                      }
                    },
                    "constructInfo": {
                      "fqn": "aws-cdk-lib.aws_ec2.CfnSubnet",
                      "version": "2.9.0"
                    }
                  },
                  "Acl": {
                    "id": "Acl",
                    "path": "vpc-stack/my-cdk-vpc/DB-subnetSubnet1/Acl",
                    "constructInfo": {
                      "fqn": "aws-cdk-lib.Resource",
                      "version": "2.9.0"
                    }
                  },
                  "RouteTable": {
                    "id": "RouteTable",
                    "path": "vpc-stack/my-cdk-vpc/DB-subnetSubnet1/RouteTable",
                    "attributes": {
                      "aws:cdk:cloudformation:type": "AWS::EC2::RouteTable",
                      "aws:cdk:cloudformation:props": {
                        "vpcId": {
                          "Ref": "mycdkvpc037DA4AF"
                        },
                        "tags": [
                          {
                            "key": "Name",
                            "value": "vpc-stack/my-cdk-vpc/DB-subnetSubnet1"
                          }
                        ]
                      }
                    },
                    "constructInfo": {
                      "fqn": "aws-cdk-lib.aws_ec2.CfnRouteTable",
                      "version": "2.9.0"
                    }
                  },
                  "RouteTableAssociation": {
                    "id": "RouteTableAssociation",
                    "path": "vpc-stack/my-cdk-vpc/DB-subnetSubnet1/RouteTableAssociation",
                    "attributes": {
                      "aws:cdk:cloudformation:type": "AWS::EC2::SubnetRouteTableAssociation",
                      "aws:cdk:cloudformation:props": {
                        "routeTableId": {
                          "Ref": "mycdkvpcDBsubnetSubnet1RouteTable455F9DF2"
                        },
                        "subnetId": {
                          "Ref": "mycdkvpcDBsubnetSubnet1SubnetF411B07B"
                        }
                      }
                    },
                    "constructInfo": {
                      "fqn": "aws-cdk-lib.aws_ec2.CfnSubnetRouteTableAssociation",
                      "version": "2.9.0"
                    }
                  }
                },
                "constructInfo": {
                  "fqn": "aws-cdk-lib.aws_ec2.PrivateSubnet",
                  "version": "2.9.0"
                }
              },
              "DB-subnetSubnet2": {
                "id": "DB-subnetSubnet2",
                "path": "vpc-stack/my-cdk-vpc/DB-subnetSubnet2",
                "children": {
                  "Subnet": {
                    "id": "Subnet",
                    "path": "vpc-stack/my-cdk-vpc/DB-subnetSubnet2/Subnet",
                    "attributes": {
                      "aws:cdk:cloudformation:type": "AWS::EC2::Subnet",
                      "aws:cdk:cloudformation:props": {
                        "cidrBlock": "10.20.4.16/28",
                        "vpcId": {
                          "Ref": "mycdkvpc037DA4AF"
                        },
                        "availabilityZone": {
                          "Fn::Select": [
                            1,
                            {
                              "Fn::GetAZs": ""
                            }
                          ]
                        },
                        "mapPublicIpOnLaunch": false,
                        "tags": [
                          {
                            "key": "aws-cdk:subnet-name",
                            "value": "DB-subnet"
                          },
                          {
                            "key": "aws-cdk:subnet-type",
                            "value": "Isolated"
                          },
                          {
                            "key": "Name",
                            "value": "vpc-stack/my-cdk-vpc/DB-subnetSubnet2"
                          }
                        ]
                      }
                    },
                    "constructInfo": {
                      "fqn": "aws-cdk-lib.aws_ec2.CfnSubnet",
                      "version": "2.9.0"
                    }
                  },
                  "Acl": {
                    "id": "Acl",
                    "path": "vpc-stack/my-cdk-vpc/DB-subnetSubnet2/Acl",
                    "constructInfo": {
                      "fqn": "aws-cdk-lib.Resource",
                      "version": "2.9.0"
                    }
                  },
                  "RouteTable": {
                    "id": "RouteTable",
                    "path": "vpc-stack/my-cdk-vpc/DB-subnetSubnet2/RouteTable",
                    "attributes": {
                      "aws:cdk:cloudformation:type": "AWS::EC2::RouteTable",
                      "aws:cdk:cloudformation:props": {
                        "vpcId": {
                          "Ref": "mycdkvpc037DA4AF"
                        },
                        "tags": [
                          {
                            "key": "Name",
                            "value": "vpc-stack/my-cdk-vpc/DB-subnetSubnet2"
                          }
                        ]
                      }
                    },
                    "constructInfo": {
                      "fqn": "aws-cdk-lib.aws_ec2.CfnRouteTable",
                      "version": "2.9.0"
                    }
                  },
                  "RouteTableAssociation": {
                    "id": "RouteTableAssociation",
                    "path": "vpc-stack/my-cdk-vpc/DB-subnetSubnet2/RouteTableAssociation",
                    "attributes": {
                      "aws:cdk:cloudformation:type": "AWS::EC2::SubnetRouteTableAssociation",
                      "aws:cdk:cloudformation:props": {
                        "routeTableId": {
                          "Ref": "mycdkvpcDBsubnetSubnet2RouteTable8FCEA903"
                        },
                        "subnetId": {
                          "Ref": "mycdkvpcDBsubnetSubnet2SubnetDEB321F0"
                        }
                      }
                    },
                    "constructInfo": {
                      "fqn": "aws-cdk-lib.aws_ec2.CfnSubnetRouteTableAssociation",
                      "version": "2.9.0"
                    }
                  }
                },
                "constructInfo": {
                  "fqn": "aws-cdk-lib.aws_ec2.PrivateSubnet",
                  "version": "2.9.0"
                }
              },
              "IGW": {
                "id": "IGW",
                "path": "vpc-stack/my-cdk-vpc/IGW",
                "attributes": {
                  "aws:cdk:cloudformation:type": "AWS::EC2::InternetGateway",
                  "aws:cdk:cloudformation:props": {
                    "tags": [
                      {
                        "key": "Name",
                        "value": "my-cdk-vpc"
                      }
                    ]
                  }
                },
                "constructInfo": {
                  "fqn": "aws-cdk-lib.aws_ec2.CfnInternetGateway",
                  "version": "2.9.0"
                }
              },
              "VPCGW": {
                "id": "VPCGW",
                "path": "vpc-stack/my-cdk-vpc/VPCGW",
                "attributes": {
                  "aws:cdk:cloudformation:type": "AWS::EC2::VPCGatewayAttachment",
                  "aws:cdk:cloudformation:props": {
                    "vpcId": {
                      "Ref": "mycdkvpc037DA4AF"
                    },
                    "internetGatewayId": {
                      "Ref": "mycdkvpcIGW4220D5A9"
                    }
                  }
                },
                "constructInfo": {
                  "fqn": "aws-cdk-lib.aws_ec2.CfnVPCGatewayAttachment",
                  "version": "2.9.0"
                }
              }
            },
            "constructInfo": {
              "fqn": "aws-cdk-lib.aws_ec2.Vpc",
              "version": "2.9.0"
            }
          },
          "CDKMetadata": {
            "id": "CDKMetadata",
            "path": "vpc-stack/CDKMetadata",
            "children": {
              "Default": {
                "id": "Default",
                "path": "vpc-stack/CDKMetadata/Default",
                "constructInfo": {
                  "fqn": "aws-cdk-lib.CfnResource",
                  "version": "2.9.0"
                }
              },
              "Condition": {
                "id": "Condition",
                "path": "vpc-stack/CDKMetadata/Condition",
                "constructInfo": {
                  "fqn": "aws-cdk-lib.CfnCondition",
                  "version": "2.9.0"
                }
              }
            },
            "constructInfo": {
              "fqn": "constructs.Construct",
              "version": "10.0.47"
            }
          }
        },
        "constructInfo": {
          "fqn": "aws-cdk-lib.Stack",
          "version": "2.9.0"
        }
      }
    },
    "constructInfo": {
      "fqn": "aws-cdk-lib.App",
      "version": "2.9.0"
    }
  }
}