{
  "version": "16.0.0",
  "files": {
    "d854cf0ff2d7a10a062f19b0fd856c87d40611ba8718836d6fade5e724a43d5a": {
      "source": {
        "path": "vpc-stack.template.json",
        "packaging": "file"
      },
      "destinations": {
        "current_account-current_region": {
          "bucketName": "cdk-hnb659fds-assets-${AWS::AccountId}-${AWS::Region}",
          "objectKey": "d854cf0ff2d7a10a062f19b0fd856c87d40611ba8718836d6fade5e724a43d5a.json",
          "assumeRoleArn": "arn:${AWS::Partition}:iam::${AWS::AccountId}:role/cdk-hnb659fds-file-publishing-role-${AWS::AccountId}-${AWS::Region}"
        }
      }
    }
  },
  "dockerImages": {}
}